Version 4
SHEET 1 1908 680
WIRE 32 -80 -288 -80
WIRE 176 -80 112 -80
WIRE 480 -80 208 -80
WIRE 960 -80 640 -80
WIRE 1088 -80 1040 -80
WIRE 1168 -80 1152 -80
WIRE 1264 -80 1232 -80
WIRE 1408 -80 1344 -80
WIRE -288 16 -288 -80
WIRE 32 16 -288 16
WIRE 176 16 112 16
WIRE 336 16 208 16
WIRE 640 16 640 -80
WIRE 960 16 640 16
WIRE 1088 16 1040 16
WIRE 1168 16 1152 16
WIRE 1264 16 1232 16
WIRE 1408 16 1408 -80
WIRE 1408 16 1344 16
WIRE 640 32 640 16
WIRE 1408 32 1408 16
WIRE 336 96 336 16
WIRE -288 144 -288 16
WIRE 640 144 640 112
WIRE 1408 144 1408 112
WIRE -288 256 -288 224
WIRE 336 256 336 176
WIRE 336 256 -288 256
WIRE 480 256 480 -80
WIRE 480 256 336 256
WIRE 640 256 640 224
WIRE 1408 256 1408 224
WIRE 1408 256 640 256
WIRE -288 304 -288 256
WIRE 640 304 640 256
FLAG -288 304 0
FLAG 640 304 0
SYMBOL voltage -288 128 R0
WINDOW 123 0 0 Left 0
WINDOW 39 0 0 Left 0
SYMATTR InstName V1
SYMATTR Value PULSE(0 3.3 0 0 0 0.00035 0.0007)
SYMBOL res 16 32 R270
WINDOW 0 32 56 VTop 2
WINDOW 3 0 56 VBottom 2
SYMATTR InstName R2
SYMATTR Value 100
SYMBOL AutoGenerated\\GH_CS8PM1_24 192 -80 R0
SYMATTR InstName U1
SYMBOL AutoGenerated\\GH_CS8PM1_24 192 16 R180
SYMATTR InstName U2
SYMBOL voltage 336 80 R0
WINDOW 123 0 0 Left 0
WINDOW 39 0 0 Left 0
SYMATTR InstName V2
SYMATTR Value 3.3
SYMBOL res 16 -64 R270
WINDOW 0 32 56 VTop 2
WINDOW 3 0 56 VBottom 2
SYMATTR InstName R1
SYMATTR Value 100
SYMBOL voltage 640 128 R0
WINDOW 123 0 0 Left 0
WINDOW 39 0 0 Left 0
SYMATTR InstName V3
SYMATTR Value PULSE(0 3.3 0 0 0 0.0003 0.0010)
SYMBOL res 944 32 R270
WINDOW 0 32 56 VTop 2
WINDOW 3 0 56 VBottom 2
SYMATTR InstName R3
SYMATTR Value 50
SYMBOL res 944 -64 R270
WINDOW 0 32 56 VTop 2
WINDOW 3 0 56 VBottom 2
SYMATTR InstName R4
SYMATTR Value 50
SYMBOL res 1248 32 R270
WINDOW 0 32 56 VTop 2
WINDOW 3 0 56 VBottom 2
SYMATTR InstName R5
SYMATTR Value 50
SYMBOL res 1248 -64 R270
WINDOW 0 32 56 VTop 2
WINDOW 3 0 56 VBottom 2
SYMATTR InstName R6
SYMATTR Value 50
SYMBOL voltage 1408 128 R0
WINDOW 123 0 0 Left 0
WINDOW 39 0 0 Left 0
SYMATTR InstName V4
SYMATTR Value PULSE(0 3.3 0.00033 0 0 0.0003 0.001)
SYMBOL schottky 1152 -96 R90
WINDOW 0 0 32 VBottom 2
WINDOW 3 32 32 VTop 2
SYMATTR InstName D1
SYMATTR Value NSR20F30NXT5G
SYMBOL schottky 1232 -96 R90
WINDOW 0 0 32 VBottom 2
WINDOW 3 32 32 VTop 2
SYMATTR InstName D2
SYMATTR Value NSR20F30NXT5G
SYMBOL schottky 1168 32 R270
WINDOW 0 32 32 VTop 2
WINDOW 3 0 32 VBottom 2
SYMATTR InstName D3
SYMATTR Value NSR20F30NXT5G
SYMBOL schottky 1088 32 R270
WINDOW 0 32 32 VTop 2
WINDOW 3 0 32 VBottom 2
SYMATTR InstName D4
SYMATTR Value NSR20F30NXT5G
SYMBOL res 624 16 R0
SYMATTR InstName R7
SYMATTR Value 20
SYMBOL res 1392 16 R0
SYMATTR InstName R8
SYMATTR Value 20
TEXT -240 344 Left 2 !.tran 0 0.007 0
